...............
----------------------------------------------------------------------
Ran 15 tests in 0.002s

OK
Name               Stmts   Miss Branch BrPart  Cover   Missing
--------------------------------------------------------------
Diplomacy.py          70      1     42      1    98%   119
TestDiplomacy.py      54      0      2      1    98%   131->exit
--------------------------------------------------------------
TOTAL                124      1     44      2    98%
