.............
----------------------------------------------------------------------
Ran 13 tests in 0.002s

OK
Name               Stmts   Miss Branch BrPart  Cover   Missing
--------------------------------------------------------------
Diplomacy.py          91      0     46      0   100%
TestDiplomacy.py      69      0      0      0   100%
--------------------------------------------------------------
TOTAL                160      0     46      0   100%