..........
----------------------------------------------------------------------
Ran 10 tests in 0.003s

OK
Name               Stmts   Miss Branch BrPart  Cover   Missing
--------------------------------------------------------------
Diplomacy.py          62      0     34      0   100%
TestDiplomacy.py      42      0      0      0   100%
--------------------------------------------------------------
TOTAL                104      0     34      0   100%